{"Date":"22/6/2017 20:19","Message":"Staring Poller!/\n"}
{"Date":"22/6/2017 20:19","Message":"Poll Data Thread ID : 0 Protocol name: DAC 8017!/\n"}
{"Date":"22/6/2017 20:20","Message":"Save data for device0!/\n"}
{"Date":"22/6/2017 20:20","Message":"Poll Data Thread ID : 2 Protocol name: modbus!/\n"}
{"Date":"22/6/2017 20:20","Message":"Poll Data Thread ID : 0 Protocol name: DAC 8017!/\n"}
