{"time":1498119300.0,"channels":[{"id":0,"value":"-9999","status":3,"Summary":{"Maximum":"-9999","Minimum":"9999","Std":"0"}},{"id":1,"value":"0","status":3},{"id":2,"value":"-9999","status":3},{"id":3,"value":"-9999","status":3}]}
{"time":1498119600.0,"channels":[{"id":0,"value":"-9999","status":0,"Summary":{"Maximum":"-9999","Minimum":"-9999","Std":"-9999"}},{"id":1,"value":"-9999","status":0},{"id":2,"value":"0","status":0},{"id":3,"value":"-9999","status":0}]}
{"time":1498119900.0,"channels":[{"id":0,"value":"-9999","status":0,"Summary":{"Maximum":"-9999","Minimum":"-9999","Std":"-9999"}},{"id":1,"value":"-9999","status":0},{"id":2,"value":"0","status":0},{"id":3,"value":"-9999","status":0}]}
{"time":1498120200.0,"channels":[{"id":0,"value":"-9999","status":0,"Summary":{"Maximum":"-9999","Minimum":"-9999","Std":"-9999"}},{"id":1,"value":"-9999","status":0},{"id":2,"value":"0","status":0},{"id":3,"value":"-9999","status":0}]}
{"time":1498120500.0,"channels":[{"id":0,"value":"-9999","status":0,"Summary":{"Maximum":"-9999","Minimum":"-9999","Std":"-9999"}},{"id":1,"value":"-9999","status":0},{"id":2,"value":"0","status":0},{"id":3,"value":"-9999","status":0}]}
{"time":1498120800.0,"channels":[{"id":0,"value":"-9999","status":0,"Summary":{"Maximum":"-9999","Minimum":"-9999","Std":"-9999"}},{"id":1,"value":"-9999","status":0},{"id":2,"value":"0","status":0},{"id":3,"value":"-9999","status":0}]}
{"time":1498121100.0,"channels":[{"id":0,"value":"-9999","status":0,"Summary":{"Maximum":"-9999","Minimum":"-9999","Std":"-9999"}},{"id":1,"value":"-9999","status":0},{"id":2,"value":"0","status":0},{"id":3,"value":"-9999","status":0}]}
{"time":1498121400.0,"channels":[{"id":0,"value":"-9999","status":0,"Summary":{"Maximum":"-9999","Minimum":"-9999","Std":"-9999"}},{"id":1,"value":"-9999","status":0},{"id":2,"value":"0","status":0},{"id":3,"value":"-9999","status":0}]}
{"time":1498121700.0,"channels":[{"id":0,"value":"-9999","status":0,"Summary":{"Maximum":"-9999","Minimum":"-9999","Std":"-9999"}},{"id":1,"value":"-9999","status":0},{"id":2,"value":"0","status":0},{"id":3,"value":"-9999","status":0}]}
{"time":1498122000.0,"channels":[{"id":0,"value":"-9999","status":0,"Summary":{"Maximum":"-9999","Minimum":"-9999","Std":"-9999"}},{"id":1,"value":"-9999","status":0},{"id":2,"value":"0","status":0},{"id":3,"value":"-9999","status":0}]}
{"time":1498122300.0,"channels":[{"id":0,"value":"-9999","status":0,"Summary":{"Maximum":"-9999","Minimum":"-9999","Std":"-9999"}},{"id":1,"value":"-9999","status":0},{"id":2,"value":"0","status":0},{"id":3,"value":"-9999","status":0}]}
{"time":1498122600.0,"channels":[{"id":0,"value":"-9999","status":0,"Summary":{"Maximum":"-9999","Minimum":"-9999","Std":"-9999"}},{"id":1,"value":"-9999","status":0},{"id":2,"value":"0","status":0},{"id":3,"value":"-9999","status":0}]}
{"time":1498122900.0,"channels":[{"id":0,"value":"-9999","status":0,"Summary":{"Maximum":"-9999","Minimum":"-9999","Std":"-9999"}},{"id":1,"value":"-9999","status":0},{"id":2,"value":"0","status":0},{"id":3,"value":"-9999","status":0}]}
{"time":1498123200.0,"channels":[{"id":0,"value":"-9999","status":0,"Summary":{"Maximum":"-9999","Minimum":"-9999","Std":"-9999"}},{"id":1,"value":"-9999","status":0},{"id":2,"value":"0","status":0},{"id":3,"value":"-9999","status":0}]}
{"time":1498123500.0,"channels":[{"id":0,"value":"-9999","status":0,"Summary":{"Maximum":"-9999","Minimum":"-9999","Std":"-9999"}},{"id":1,"value":"-9999","status":0},{"id":2,"value":"0","status":0},{"id":3,"value":"-9999","status":0}]}
{"time":1498123800.0,"channels":[{"id":0,"value":"-9999","status":0,"Summary":{"Maximum":"-9999","Minimum":"-9999","Std":"-9999"}},{"id":1,"value":"-9999","status":0},{"id":2,"value":"0","status":0},{"id":3,"value":"-9999","status":0}]}
{"time":1498124100.0,"channels":[{"id":0,"value":"-9999","status":0,"Summary":{"Maximum":"-9999","Minimum":"-9999","Std":"-9999"}},{"id":1,"value":"-9999","status":0},{"id":2,"value":"0","status":0},{"id":3,"value":"-9999","status":0}]}
{"time":1498124400.0,"channels":[{"id":0,"value":"-9999","status":0,"Summary":{"Maximum":"-9999","Minimum":"-9999","Std":"-9999"}},{"id":1,"value":"-9999","status":0},{"id":2,"value":"0","status":0},{"id":3,"value":"-9999","status":0}]}
{"time":1498124700.0,"channels":[{"id":0,"value":"-9999","status":0,"Summary":{"Maximum":"-9999","Minimum":"-9999","Std":"-9999"}},{"id":1,"value":"-9999","status":0},{"id":2,"value":"0","status":0},{"id":3,"value":"-9999","status":0}]}
{"time":1498125000.0,"channels":[{"id":0,"value":"-9999","status":0,"Summary":{"Maximum":"-9999","Minimum":"-9999","Std":"-9999"}},{"id":1,"value":"-9999","status":0},{"id":2,"value":"0","status":0},{"id":3,"value":"-9999","status":0}]}
{"time":1498125300.0,"channels":[{"id":0,"value":"-9999","status":0,"Summary":{"Maximum":"-9999","Minimum":"-9999","Std":"-9999"}},{"id":1,"value":"-9999","status":0},{"id":2,"value":"0","status":0},{"id":3,"value":"-9999","status":0}]}
{"time":1498125600.0,"channels":[{"id":0,"value":"-9999","status":0,"Summary":{"Maximum":"-9999","Minimum":"-9999","Std":"-9999"}},{"id":1,"value":"-9999","status":0},{"id":2,"value":"0","status":0},{"id":3,"value":"-9999","status":0}]}
{"time":1498125900.0,"channels":[{"id":0,"value":"-9999","status":0,"Summary":{"Maximum":"-9999","Minimum":"-9999","Std":"-9999"}},{"id":1,"value":"-9999","status":0},{"id":2,"value":"0","status":0},{"id":3,"value":"-9999","status":0}]}
{"time":1498126200.0,"channels":[{"id":0,"value":"-9999","status":0,"Summary":{"Maximum":"-9999","Minimum":"-9999","Std":"-9999"}},{"id":1,"value":"-9999","status":0},{"id":2,"value":"0","status":0},{"id":3,"value":"-9999","status":0}]}
{"time":1498126500.0,"channels":[{"id":0,"value":"-9999","status":0,"Summary":{"Maximum":"-9999","Minimum":"-9999","Std":"-9999"}},{"id":1,"value":"-9999","status":0},{"id":2,"value":"0","status":0},{"id":3,"value":"-9999","status":0}]}
{"time":1498126800.0,"channels":[{"id":0,"value":"-9999","status":0,"Summary":{"Maximum":"-9999","Minimum":"-9999","Std":"-9999"}},{"id":1,"value":"-9999","status":0},{"id":2,"value":"0","status":0},{"id":3,"value":"-9999","status":0}]}
{"time":1498127100.0,"channels":[{"id":0,"value":"-9999","status":0,"Summary":{"Maximum":"-9999","Minimum":"-9999","Std":"-9999"}},{"id":1,"value":"-9999","status":0},{"id":2,"value":"0","status":0},{"id":3,"value":"-9999","status":0}]}
{"time":1498127400.0,"channels":[{"id":0,"value":"-9999","status":0,"Summary":{"Maximum":"-9999","Minimum":"-9999","Std":"-9999"}},{"id":1,"value":"-9999","status":0},{"id":2,"value":"0","status":0},{"id":3,"value":"-9999","status":0}]}
{"time":1498127700.0,"channels":[{"id":0,"value":"-9999","status":0,"Summary":{"Maximum":"-9999","Minimum":"-9999","Std":"-9999"}},{"id":1,"value":"-9999","status":0},{"id":2,"value":"0","status":0},{"id":3,"value":"-9999","status":0}]}
{"time":1498128000.0,"channels":[{"id":0,"value":"-9999","status":0,"Summary":{"Maximum":"-9999","Minimum":"-9999","Std":"-9999"}},{"id":1,"value":"-9999","status":0},{"id":2,"value":"0","status":0},{"id":3,"value":"-9999","status":0}]}
{"time":1498128300.0,"channels":[{"id":0,"value":"-9999","status":0,"Summary":{"Maximum":"-9999","Minimum":"-9999","Std":"-9999"}},{"id":1,"value":"-9999","status":0},{"id":2,"value":"0","status":0},{"id":3,"value":"-9999","status":0}]}
{"time":1498128600.0,"channels":[{"id":0,"value":"-9999","status":0,"Summary":{"Maximum":"-9999","Minimum":"-9999","Std":"-9999"}},{"id":1,"value":"-9999","status":0},{"id":2,"value":"0","status":0},{"id":3,"value":"-9999","status":0}]}
{"time":1498128900.0,"channels":[{"id":0,"value":"-9999","status":0,"Summary":{"Maximum":"-9999","Minimum":"-9999","Std":"-9999"}},{"id":1,"value":"-9999","status":0},{"id":2,"value":"0","status":0},{"id":3,"value":"-9999","status":0}]}
{"time":1498129200.0,"channels":[{"id":0,"value":"-9999","status":0,"Summary":{"Maximum":"-9999","Minimum":"-9999","Std":"-9999"}},{"id":1,"value":"-9999","status":0},{"id":2,"value":"0","status":0},{"id":3,"value":"-9999","status":0}]}
{"time":1498129500.0,"channels":[{"id":0,"value":"-9999","status":0,"Summary":{"Maximum":"-9999","Minimum":"-9999","Std":"-9999"}},{"id":1,"value":"-9999","status":0},{"id":2,"value":"0","status":0},{"id":3,"value":"-9999","status":0}]}
{"time":1498129800.0,"channels":[{"id":0,"value":"-9999","status":0,"Summary":{"Maximum":"-9999","Minimum":"-9999","Std":"-9999"}},{"id":1,"value":"-9999","status":0},{"id":2,"value":"0","status":0},{"id":3,"value":"-9999","status":0}]}
{"time":1498130100.0,"channels":[{"id":0,"value":"-9999","status":0,"Summary":{"Maximum":"-9999","Minimum":"-9999","Std":"-9999"}},{"id":1,"value":"-9999","status":0},{"id":2,"value":"0","status":0},{"id":3,"value":"-9999","status":0}]}
{"time":1498130400.0,"channels":[{"id":0,"value":"-9999","status":0,"Summary":{"Maximum":"-9999","Minimum":"-9999","Std":"-9999"}},{"id":1,"value":"-9999","status":0},{"id":2,"value":"0","status":0},{"id":3,"value":"-9999","status":0}]}
{"time":1498130700.0,"channels":[{"id":0,"value":"-9999","status":0,"Summary":{"Maximum":"-9999","Minimum":"-9999","Std":"-9999"}},{"id":1,"value":"-9999","status":0},{"id":2,"value":"0","status":0},{"id":3,"value":"-9999","status":0}]}
{"time":1498131000.0,"channels":[{"id":0,"value":"-9999","status":0,"Summary":{"Maximum":"-9999","Minimum":"-9999","Std":"-9999"}},{"id":1,"value":"-9999","status":0},{"id":2,"value":"0","status":0},{"id":3,"value":"-9999","status":0}]}
{"time":1498131300.0,"channels":[{"id":0,"value":"-9999","status":0,"Summary":{"Maximum":"-9999","Minimum":"-9999","Std":"-9999"}},{"id":1,"value":"-9999","status":0},{"id":2,"value":"0","status":0},{"id":3,"value":"-9999","status":0}]}
{"time":1498131600.0,"channels":[{"id":0,"value":"-9999","status":0,"Summary":{"Maximum":"-9999","Minimum":"-9999","Std":"-9999"}},{"id":1,"value":"-9999","status":0},{"id":2,"value":"0","status":0},{"id":3,"value":"-9999","status":0}]}
{"time":1498131900.0,"channels":[{"id":0,"value":"-9999","status":0,"Summary":{"Maximum":"-9999","Minimum":"-9999","Std":"-9999"}},{"id":1,"value":"-9999","status":0},{"id":2,"value":"0","status":0},{"id":3,"value":"-9999","status":0}]}
{"time":1498132200.0,"channels":[{"id":0,"value":"-9999","status":0,"Summary":{"Maximum":"-9999","Minimum":"-9999","Std":"-9999"}},{"id":1,"value":"-9999","status":0},{"id":2,"value":"0","status":0},{"id":3,"value":"-9999","status":0}]}
{"time":1498132500.0,"channels":[{"id":0,"value":"-9999","status":0,"Summary":{"Maximum":"-9999","Minimum":"-9999","Std":"-9999"}},{"id":1,"value":"-9999","status":0},{"id":2,"value":"0","status":0},{"id":3,"value":"-9999","status":0}]}
{"time":1498132800.0,"channels":[{"id":0,"value":"-9999","status":0,"Summary":{"Maximum":"-9999","Minimum":"-9999","Std":"-9999"}},{"id":1,"value":"-9999","status":0},{"id":2,"value":"0","status":0},{"id":3,"value":"-9999","status":0}]}
{"time":1498133100.0,"channels":[{"id":0,"value":"-9999","status":0,"Summary":{"Maximum":"-9999","Minimum":"-9999","Std":"-9999"}},{"id":1,"value":"-9999","status":0},{"id":2,"value":"0","status":0},{"id":3,"value":"-9999","status":0}]}
{"time":1498133400.0,"channels":[{"id":0,"value":"-9999","status":0,"Summary":{"Maximum":"-9999","Minimum":"-9999","Std":"-9999"}},{"id":1,"value":"-9999","status":0},{"id":2,"value":"0","status":0},{"id":3,"value":"-9999","status":0}]}
{"time":1498133700.0,"channels":[{"id":0,"value":"-9999","status":0,"Summary":{"Maximum":"-9999","Minimum":"-9999","Std":"-9999"}},{"id":1,"value":"-9999","status":0},{"id":2,"value":"0","status":0},{"id":3,"value":"-9999","status":0}]}
{"time":1498134000.0,"channels":[{"id":0,"value":"-9999","status":0,"Summary":{"Maximum":"-9999","Minimum":"-9999","Std":"-9999"}},{"id":1,"value":"-9999","status":0},{"id":2,"value":"0","status":0},{"id":3,"value":"-9999","status":0}]}
{"time":1498134300.0,"channels":[{"id":0,"value":"-9999","status":0,"Summary":{"Maximum":"-9999","Minimum":"-9999","Std":"-9999"}},{"id":1,"value":"-9999","status":0},{"id":2,"value":"0","status":0},{"id":3,"value":"-9999","status":0}]}
{"time":1498134600.0,"channels":[{"id":0,"value":"-9999","status":0,"Summary":{"Maximum":"-9999","Minimum":"-9999","Std":"-9999"}},{"id":1,"value":"-9999","status":0},{"id":2,"value":"0","status":0},{"id":3,"value":"-9999","status":0}]}
{"time":1498134900.0,"channels":[{"id":0,"value":"-9999","status":0,"Summary":{"Maximum":"-9999","Minimum":"-9999","Std":"-9999"}},{"id":1,"value":"-9999","status":0},{"id":2,"value":"0","status":0},{"id":3,"value":"-9999","status":0}]}
{"time":1498135200.0,"channels":[{"id":0,"value":"-9999","status":0,"Summary":{"Maximum":"-9999","Minimum":"-9999","Std":"-9999"}},{"id":1,"value":"-9999","status":0},{"id":2,"value":"0","status":0},{"id":3,"value":"-9999","status":0}]}
{"time":1498135500.0,"channels":[{"id":0,"value":"-9999","status":0,"Summary":{"Maximum":"-9999","Minimum":"-9999","Std":"-9999"}},{"id":1,"value":"-9999","status":0},{"id":2,"value":"0","status":0},{"id":3,"value":"-9999","status":0}]}
{"time":1498135800.0,"channels":[{"id":0,"value":"-9999","status":0,"Summary":{"Maximum":"-9999","Minimum":"-9999","Std":"-9999"}},{"id":1,"value":"-9999","status":0},{"id":2,"value":"0","status":0},{"id":3,"value":"-9999","status":0}]}
{"time":1498136100.0,"channels":[{"id":0,"value":"-9999","status":0,"Summary":{"Maximum":"-9999","Minimum":"-9999","Std":"-9999"}},{"id":1,"value":"-9999","status":0},{"id":2,"value":"0","status":0},{"id":3,"value":"-9999","status":0}]}
{"time":1498136400.0,"channels":[{"id":0,"value":"-9999","status":0,"Summary":{"Maximum":"-9999","Minimum":"-9999","Std":"-9999"}},{"id":1,"value":"-9999","status":0},{"id":2,"value":"0","status":0},{"id":3,"value":"-9999","status":0}]}
{"time":1498136700.0,"channels":[{"id":0,"value":"-9999","status":0,"Summary":{"Maximum":"-9999","Minimum":"-9999","Std":"-9999"}},{"id":1,"value":"-9999","status":0},{"id":2,"value":"0","status":0},{"id":3,"value":"-9999","status":0}]}
{"time":1498137000.0,"channels":[{"id":0,"value":"-9999","status":0,"Summary":{"Maximum":"-9999","Minimum":"-9999","Std":"-9999"}},{"id":1,"value":"-9999","status":0},{"id":2,"value":"0","status":0},{"id":3,"value":"-9999","status":0}]}
{"time":1498137300.0,"channels":[{"id":0,"value":"-9999","status":0,"Summary":{"Maximum":"-9999","Minimum":"-9999","Std":"-9999"}},{"id":1,"value":"-9999","status":0},{"id":2,"value":"0","status":0},{"id":3,"value":"-9999","status":0}]}
{"time":1498137600.0,"channels":[{"id":0,"value":"-9999","status":0,"Summary":{"Maximum":"-9999","Minimum":"-9999","Std":"-9999"}},{"id":1,"value":"-9999","status":0},{"id":2,"value":"0","status":0},{"id":3,"value":"-9999","status":0}]}
{"time":1498137900.0,"channels":[{"id":0,"value":"-9999","status":0,"Summary":{"Maximum":"-9999","Minimum":"-9999","Std":"-9999"}},{"id":1,"value":"-9999","status":0},{"id":2,"value":"0","status":0},{"id":3,"value":"-9999","status":0}]}
{"time":1498138200.0,"channels":[{"id":0,"value":"-9999","status":0,"Summary":{"Maximum":"-9999","Minimum":"-9999","Std":"-9999"}},{"id":1,"value":"-9999","status":0},{"id":2,"value":"0","status":0},{"id":3,"value":"-9999","status":0}]}
{"time":1498138500.0,"channels":[{"id":0,"value":"-9999","status":0,"Summary":{"Maximum":"-9999","Minimum":"-9999","Std":"-9999"}},{"id":1,"value":"-9999","status":0},{"id":2,"value":"0","status":0},{"id":3,"value":"-9999","status":0}]}
{"time":1498138800.0,"channels":[{"id":0,"value":"-9999","status":0,"Summary":{"Maximum":"-9999","Minimum":"-9999","Std":"-9999"}},{"id":1,"value":"-9999","status":0},{"id":2,"value":"0","status":0},{"id":3,"value":"-9999","status":0}]}
{"time":1498139100.0,"channels":[{"id":0,"value":"-9999","status":0,"Summary":{"Maximum":"-9999","Minimum":"-9999","Std":"-9999"}},{"id":1,"value":"-9999","status":0},{"id":2,"value":"0","status":0},{"id":3,"value":"-9999","status":0}]}
{"time":1498139400.0,"channels":[{"id":0,"value":"-9999","status":0,"Summary":{"Maximum":"-9999","Minimum":"-9999","Std":"-9999"}},{"id":1,"value":"-9999","status":0},{"id":2,"value":"0","status":0},{"id":3,"value":"-9999","status":0}]}
{"time":1498139700.0,"channels":[{"id":0,"value":"-9999","status":0,"Summary":{"Maximum":"-9999","Minimum":"-9999","Std":"-9999"}},{"id":1,"value":"-9999","status":0},{"id":2,"value":"0","status":0},{"id":3,"value":"-9999","status":0}]}
{"time":1498140000.0,"channels":[{"id":0,"value":"-9999","status":0,"Summary":{"Maximum":"-9999","Minimum":"-9999","Std":"-9999"}},{"id":1,"value":"-9999","status":0},{"id":2,"value":"0","status":0},{"id":3,"value":"-9999","status":0}]}
{"time":1498140300.0,"channels":[{"id":0,"value":"-9999","status":0,"Summary":{"Maximum":"-9999","Minimum":"-9999","Std":"-9999"}},{"id":1,"value":"-9999","status":0},{"id":2,"value":"0","status":0},{"id":3,"value":"-9999","status":0}]}
{"time":1498140600.0,"channels":[{"id":0,"value":"-9999","status":0,"Summary":{"Maximum":"-9999","Minimum":"-9999","Std":"-9999"}},{"id":1,"value":"-9999","status":0},{"id":2,"value":"0","status":0},{"id":3,"value":"-9999","status":0}]}
{"time":1498140900.0,"channels":[{"id":0,"value":"-9999","status":0,"Summary":{"Maximum":"-9999","Minimum":"-9999","Std":"-9999"}},{"id":1,"value":"-9999","status":0},{"id":2,"value":"0","status":0},{"id":3,"value":"-9999","status":0}]}
{"time":1498141200.0,"channels":[{"id":0,"value":"-9999","status":0,"Summary":{"Maximum":"-9999","Minimum":"-9999","Std":"-9999"}},{"id":1,"value":"-9999","status":0},{"id":2,"value":"0","status":0},{"id":3,"value":"-9999","status":0}]}
{"time":1498141500.0,"channels":[{"id":0,"value":"-9999","status":0,"Summary":{"Maximum":"-9999","Minimum":"-9999","Std":"-9999"}},{"id":1,"value":"-9999","status":0},{"id":2,"value":"0","status":0},{"id":3,"value":"-9999","status":0}]}
{"time":1498141800.0,"channels":[{"id":0,"value":"-9999","status":0,"Summary":{"Maximum":"-9999","Minimum":"-9999","Std":"-9999"}},{"id":1,"value":"-9999","status":0},{"id":2,"value":"0","status":0},{"id":3,"value":"-9999","status":0}]}
{"time":1498142100.0,"channels":[{"id":0,"value":"-9999","status":0,"Summary":{"Maximum":"-9999","Minimum":"-9999","Std":"-9999"}},{"id":1,"value":"-9999","status":0},{"id":2,"value":"0","status":0},{"id":3,"value":"-9999","status":0}]}
{"time":1498142400.0,"channels":[{"id":0,"value":"-9999","status":0,"Summary":{"Maximum":"-9999","Minimum":"-9999","Std":"-9999"}},{"id":1,"value":"-9999","status":0},{"id":2,"value":"0","status":0},{"id":3,"value":"-9999","status":0}]}
{"time":1498142700.0,"channels":[{"id":0,"value":"-9999","status":0,"Summary":{"Maximum":"-9999","Minimum":"-9999","Std":"-9999"}},{"id":1,"value":"-9999","status":0},{"id":2,"value":"0","status":0},{"id":3,"value":"-9999","status":0}]}
{"time":1498143000.0,"channels":[{"id":0,"value":"-9999","status":0,"Summary":{"Maximum":"-9999","Minimum":"-9999","Std":"-9999"}},{"id":1,"value":"-9999","status":0},{"id":2,"value":"0","status":0},{"id":3,"value":"-9999","status":0}]}
{"time":1498143300.0,"channels":[{"id":0,"value":"-9999","status":0,"Summary":{"Maximum":"-9999","Minimum":"-9999","Std":"-9999"}},{"id":1,"value":"-9999","status":0},{"id":2,"value":"0","status":0},{"id":3,"value":"-9999","status":0}]}
{"time":1498143600.0,"channels":[{"id":0,"value":"-9999","status":0,"Summary":{"Maximum":"-9999","Minimum":"-9999","Std":"-9999"}},{"id":1,"value":"-9999","status":0},{"id":2,"value":"0","status":0},{"id":3,"value":"-9999","status":0}]}
{"time":1498143900.0,"channels":[{"id":0,"value":"-9999","status":0,"Summary":{"Maximum":"-9999","Minimum":"-9999","Std":"-9999"}},{"id":1,"value":"-9999","status":0},{"id":2,"value":"0","status":0},{"id":3,"value":"-9999","status":0}]}
{"time":1498144200.0,"channels":[{"id":0,"value":"-9999","status":0,"Summary":{"Maximum":"-9999","Minimum":"-9999","Std":"-9999"}},{"id":1,"value":"-9999","status":0},{"id":2,"value":"0","status":0},{"id":3,"value":"-9999","status":0}]}
{"time":1498144500.0,"channels":[{"id":0,"value":"-9999","status":0,"Summary":{"Maximum":"-9999","Minimum":"-9999","Std":"-9999"}},{"id":1,"value":"-9999","status":0},{"id":2,"value":"0","status":0},{"id":3,"value":"-9999","status":0}]}
{"time":1498144800.0,"channels":[{"id":0,"value":"-9999","status":0,"Summary":{"Maximum":"-9999","Minimum":"-9999","Std":"-9999"}},{"id":1,"value":"-9999","status":0},{"id":2,"value":"0","status":0},{"id":3,"value":"-9999","status":0}]}
{"time":1498145100.0,"channels":[{"id":0,"value":"-9999","status":0,"Summary":{"Maximum":"-9999","Minimum":"-9999","Std":"-9999"}},{"id":1,"value":"-9999","status":0},{"id":2,"value":"0","status":0},{"id":3,"value":"-9999","status":0}]}
{"time":1498145400.0,"channels":[{"id":0,"value":"-9999","status":0,"Summary":{"Maximum":"-9999","Minimum":"-9999","Std":"-9999"}},{"id":1,"value":"-9999","status":0},{"id":2,"value":"0","status":0},{"id":3,"value":"-9999","status":0}]}
{"time":1498145700.0,"channels":[{"id":0,"value":"-9999","status":0,"Summary":{"Maximum":"-9999","Minimum":"-9999","Std":"-9999"}},{"id":1,"value":"-9999","status":0},{"id":2,"value":"0","status":0},{"id":3,"value":"-9999","status":0}]}
{"time":1498146000.0,"channels":[{"id":0,"value":"-9999","status":0,"Summary":{"Maximum":"-9999","Minimum":"-9999","Std":"-9999"}},{"id":1,"value":"-9999","status":0},{"id":2,"value":"0","status":0},{"id":3,"value":"-9999","status":0}]}
{"time":1498146300.0,"channels":[{"id":0,"value":"-9999","status":0,"Summary":{"Maximum":"-9999","Minimum":"-9999","Std":"-9999"}},{"id":1,"value":"-9999","status":0},{"id":2,"value":"0","status":0},{"id":3,"value":"-9999","status":0}]}
{"time":1498146600.0,"channels":[{"id":0,"value":"-9999","status":0,"Summary":{"Maximum":"-9999","Minimum":"-9999","Std":"-9999"}},{"id":1,"value":"-9999","status":0},{"id":2,"value":"0","status":0},{"id":3,"value":"-9999","status":0}]}
{"time":1498146900.0,"channels":[{"id":0,"value":"-9999","status":0,"Summary":{"Maximum":"-9999","Minimum":"-9999","Std":"-9999"}},{"id":1,"value":"-9999","status":0},{"id":2,"value":"0","status":0},{"id":3,"value":"-9999","status":0}]}
{"time":1498147200.0,"channels":[{"id":0,"value":"-9999","status":0,"Summary":{"Maximum":"-9999","Minimum":"-9999","Std":"-9999"}},{"id":1,"value":"-9999","status":0},{"id":2,"value":"0","status":0},{"id":3,"value":"-9999","status":0}]}
{"time":1498147500.0,"channels":[{"id":0,"value":"-9999","status":0,"Summary":{"Maximum":"-9999","Minimum":"-9999","Std":"-9999"}},{"id":1,"value":"-9999","status":0},{"id":2,"value":"0","status":0},{"id":3,"value":"-9999","status":0}]}
{"time":1498147800.0,"channels":[{"id":0,"value":"-9999","status":0,"Summary":{"Maximum":"-9999","Minimum":"-9999","Std":"-9999"}},{"id":1,"value":"-9999","status":0},{"id":2,"value":"0","status":0},{"id":3,"value":"-9999","status":0}]}
{"time":1498148100.0,"channels":[{"id":0,"value":"-9999","status":0,"Summary":{"Maximum":"-9999","Minimum":"-9999","Std":"-9999"}},{"id":1,"value":"-9999","status":0},{"id":2,"value":"0","status":0},{"id":3,"value":"-9999","status":0}]}
{"time":1498148400.0,"channels":[{"id":0,"value":"-9999","status":0,"Summary":{"Maximum":"-9999","Minimum":"-9999","Std":"-9999"}},{"id":1,"value":"-9999","status":0},{"id":2,"value":"0","status":0},{"id":3,"value":"-9999","status":0}]}
{"time":1498148700.0,"channels":[{"id":0,"value":"-9999","status":0,"Summary":{"Maximum":"-9999","Minimum":"-9999","Std":"-9999"}},{"id":1,"value":"-9999","status":0},{"id":2,"value":"0","status":0},{"id":3,"value":"-9999","status":0}]}
{"time":1498149000.0,"channels":[{"id":0,"value":"-9999","status":0,"Summary":{"Maximum":"-9999","Minimum":"-9999","Std":"-9999"}},{"id":1,"value":"-9999","status":0},{"id":2,"value":"0","status":0},{"id":3,"value":"-9999","status":0}]}
{"time":1498149300.0,"channels":[{"id":0,"value":"-9999","status":0,"Summary":{"Maximum":"-9999","Minimum":"-9999","Std":"-9999"}},{"id":1,"value":"-9999","status":0},{"id":2,"value":"0","status":0},{"id":3,"value":"-9999","status":0}]}
{"time":1498149600.0,"channels":[{"id":0,"value":"-9999","status":0,"Summary":{"Maximum":"-9999","Minimum":"-9999","Std":"-9999"}},{"id":1,"value":"-9999","status":0},{"id":2,"value":"0","status":0},{"id":3,"value":"-9999","status":0}]}
{"time":1498149900.0,"channels":[{"id":0,"value":"-9999","status":0,"Summary":{"Maximum":"-9999","Minimum":"-9999","Std":"-9999"}},{"id":1,"value":"-9999","status":0},{"id":2,"value":"0","status":0},{"id":3,"value":"-9999","status":0}]}
{"time":1498150200.0,"channels":[{"id":0,"value":"-9999","status":0,"Summary":{"Maximum":"-9999","Minimum":"-9999","Std":"-9999"}},{"id":1,"value":"-9999","status":0},{"id":2,"value":"0","status":0},{"id":3,"value":"-9999","status":0}]}
{"time":1498150500.0,"channels":[{"id":0,"value":"-9999","status":0,"Summary":{"Maximum":"-9999","Minimum":"-9999","Std":"-9999"}},{"id":1,"value":"-9999","status":0},{"id":2,"value":"0","status":0},{"id":3,"value":"-9999","status":0}]}
{"time":1498150800.0,"channels":[{"id":0,"value":"-9999","status":0,"Summary":{"Maximum":"-9999","Minimum":"-9999","Std":"-9999"}},{"id":1,"value":"-9999","status":0},{"id":2,"value":"0","status":0},{"id":3,"value":"-9999","status":0}]}
{"time":1498151100.0,"channels":[{"id":0,"value":"-9999","status":0,"Summary":{"Maximum":"-9999","Minimum":"-9999","Std":"-9999"}},{"id":1,"value":"-9999","status":0},{"id":2,"value":"0","status":0},{"id":3,"value":"-9999","status":0}]}
{"time":1498151400.0,"channels":[{"id":0,"value":"-9999","status":0,"Summary":{"Maximum":"-9999","Minimum":"-9999","Std":"-9999"}},{"id":1,"value":"-9999","status":0},{"id":2,"value":"0","status":0},{"id":3,"value":"-9999","status":0}]}
{"time":1498151700.0,"channels":[{"id":0,"value":"-9999","status":0,"Summary":{"Maximum":"-9999","Minimum":"-9999","Std":"-9999"}},{"id":1,"value":"-9999","status":0},{"id":2,"value":"0","status":0},{"id":3,"value":"-9999","status":0}]}
{"time":1498152000.0,"channels":[{"id":0,"value":"-9999","status":0,"Summary":{"Maximum":"-9999","Minimum":"-9999","Std":"-9999"}},{"id":1,"value":"-9999","status":0},{"id":2,"value":"0","status":0},{"id":3,"value":"-9999","status":0}]}
{"time":1498152300.0,"channels":[{"id":0,"value":"-9999","status":0,"Summary":{"Maximum":"-9999","Minimum":"-9999","Std":"-9999"}},{"id":1,"value":"-9999","status":0},{"id":2,"value":"0","status":0},{"id":3,"value":"-9999","status":0}]}
{"time":1498152600.0,"channels":[{"id":0,"value":"-9999","status":0,"Summary":{"Maximum":"-9999","Minimum":"-9999","Std":"-9999"}},{"id":1,"value":"-9999","status":0},{"id":2,"value":"0","status":0},{"id":3,"value":"-9999","status":0}]}
{"time":1498152900.0,"channels":[{"id":0,"value":"-9999","status":0,"Summary":{"Maximum":"-9999","Minimum":"-9999","Std":"-9999"}},{"id":1,"value":"-9999","status":0},{"id":2,"value":"0","status":0},{"id":3,"value":"-9999","status":0}]}
{"time":1498153200.0,"channels":[{"id":0,"value":"-9999","status":0,"Summary":{"Maximum":"-9999","Minimum":"-9999","Std":"-9999"}},{"id":1,"value":"-9999","status":0},{"id":2,"value":"0","status":0},{"id":3,"value":"-9999","status":0}]}
{"time":1498153500.0,"channels":[{"id":0,"value":"-9999","status":0,"Summary":{"Maximum":"-9999","Minimum":"-9999","Std":"-9999"}},{"id":1,"value":"-9999","status":0},{"id":2,"value":"0","status":0},{"id":3,"value":"-9999","status":0}]}
{"time":1498153800.0,"channels":[{"id":0,"value":"-9999","status":0,"Summary":{"Maximum":"-9999","Minimum":"-9999","Std":"-9999"}},{"id":1,"value":"-9999","status":0},{"id":2,"value":"0","status":0},{"id":3,"value":"-9999","status":0}]}
{"time":1498154100.0,"channels":[{"id":0,"value":"-9999","status":0,"Summary":{"Maximum":"-9999","Minimum":"-9999","Std":"-9999"}},{"id":1,"value":"-9999","status":0},{"id":2,"value":"0","status":0},{"id":3,"value":"-9999","status":0}]}
{"time":1498154400.0,"channels":[{"id":0,"value":"-9999","status":0,"Summary":{"Maximum":"-9999","Minimum":"-9999","Std":"-9999"}},{"id":1,"value":"-9999","status":0},{"id":2,"value":"0","status":0},{"id":3,"value":"-9999","status":0}]}
{"time":1498154700.0,"channels":[{"id":0,"value":"-9999","status":0,"Summary":{"Maximum":"-9999","Minimum":"-9999","Std":"-9999"}},{"id":1,"value":"-9999","status":0},{"id":2,"value":"0","status":0},{"id":3,"value":"-9999","status":0}]}
{"time":1498155000.0,"channels":[{"id":0,"value":"-9999","status":0,"Summary":{"Maximum":"-9999","Minimum":"-9999","Std":"-9999"}},{"id":1,"value":"-9999","status":0},{"id":2,"value":"0","status":0},{"id":3,"value":"-9999","status":0}]}
{"time":1498155300.0,"channels":[{"id":0,"value":"-9999","status":0,"Summary":{"Maximum":"-9999","Minimum":"-9999","Std":"-9999"}},{"id":1,"value":"-9999","status":0},{"id":2,"value":"0","status":0},{"id":3,"value":"-9999","status":0}]}
{"time":1498155600.0,"channels":[{"id":0,"value":"-9999","status":0,"Summary":{"Maximum":"-9999","Minimum":"-9999","Std":"-9999"}},{"id":1,"value":"-9999","status":0},{"id":2,"value":"0","status":0},{"id":3,"value":"-9999","status":0}]}
{"time":1498155900.0,"channels":[{"id":0,"value":"-9999","status":0,"Summary":{"Maximum":"-9999","Minimum":"-9999","Std":"-9999"}},{"id":1,"value":"-9999","status":0},{"id":2,"value":"0","status":0},{"id":3,"value":"-9999","status":0}]}
{"time":1498156200.0,"channels":[{"id":0,"value":"-9999","status":0,"Summary":{"Maximum":"-9999","Minimum":"-9999","Std":"-9999"}},{"id":1,"value":"-9999","status":0},{"id":2,"value":"0","status":0},{"id":3,"value":"-9999","status":0}]}
{"time":1498156500.0,"channels":[{"id":0,"value":"-9999","status":0,"Summary":{"Maximum":"-9999","Minimum":"-9999","Std":"-9999"}},{"id":1,"value":"-9999","status":0},{"id":2,"value":"0","status":0},{"id":3,"value":"-9999","status":0}]}
{"time":1498156800.0,"channels":[{"id":0,"value":"-9999","status":0,"Summary":{"Maximum":"-9999","Minimum":"-9999","Std":"-9999"}},{"id":1,"value":"-9999","status":0},{"id":2,"value":"0","status":0},{"id":3,"value":"-9999","status":0}]}
{"time":1498157100.0,"channels":[{"id":0,"value":"-9999","status":0,"Summary":{"Maximum":"-9999","Minimum":"-9999","Std":"-9999"}},{"id":1,"value":"-9999","status":0},{"id":2,"value":"0","status":0},{"id":3,"value":"-9999","status":0}]}
{"time":1498157400.0,"channels":[{"id":0,"value":"-9999","status":0,"Summary":{"Maximum":"-9999","Minimum":"-9999","Std":"-9999"}},{"id":1,"value":"-9999","status":0},{"id":2,"value":"0","status":0},{"id":3,"value":"-9999","status":0}]}
{"time":1498157700.0,"channels":[{"id":0,"value":"-9999","status":0,"Summary":{"Maximum":"-9999","Minimum":"-9999","Std":"-9999"}},{"id":1,"value":"-9999","status":0},{"id":2,"value":"0","status":0},{"id":3,"value":"-9999","status":0}]}
{"time":1498158000.0,"channels":[{"id":0,"value":"-9999","status":0,"Summary":{"Maximum":"-9999","Minimum":"-9999","Std":"-9999"}},{"id":1,"value":"-9999","status":0},{"id":2,"value":"0","status":0},{"id":3,"value":"-9999","status":0}]}
{"time":1498158300.0,"channels":[{"id":0,"value":"-9999","status":0,"Summary":{"Maximum":"-9999","Minimum":"-9999","Std":"-9999"}},{"id":1,"value":"-9999","status":0},{"id":2,"value":"0","status":0},{"id":3,"value":"-9999","status":0}]}
{"time":1498158600.0,"channels":[{"id":0,"value":"-9999","status":0,"Summary":{"Maximum":"-9999","Minimum":"-9999","Std":"-9999"}},{"id":1,"value":"-9999","status":0},{"id":2,"value":"0","status":0},{"id":3,"value":"-9999","status":0}]}
{"time":1498158900.0,"channels":[{"id":0,"value":"-9999","status":0,"Summary":{"Maximum":"-9999","Minimum":"-9999","Std":"-9999"}},{"id":1,"value":"-9999","status":0},{"id":2,"value":"0","status":0},{"id":3,"value":"-9999","status":0}]}
{"time":1498159200.0,"channels":[{"id":0,"value":"-9999","status":0,"Summary":{"Maximum":"-9999","Minimum":"-9999","Std":"-9999"}},{"id":1,"value":"-9999","status":0},{"id":2,"value":"0","status":0},{"id":3,"value":"-9999","status":0}]}
{"time":1498159500.0,"channels":[{"id":0,"value":"-9999","status":0,"Summary":{"Maximum":"-9999","Minimum":"-9999","Std":"-9999"}},{"id":1,"value":"-9999","status":0},{"id":2,"value":"0","status":0},{"id":3,"value":"-9999","status":0}]}
{"time":1498159800.0,"channels":[{"id":0,"value":"-9999","status":0,"Summary":{"Maximum":"-9999","Minimum":"-9999","Std":"-9999"}},{"id":1,"value":"-9999","status":0},{"id":2,"value":"0","status":0},{"id":3,"value":"-9999","status":0}]}
{"time":1498160100.0,"channels":[{"id":0,"value":"-9999","status":0,"Summary":{"Maximum":"-9999","Minimum":"-9999","Std":"-9999"}},{"id":1,"value":"-9999","status":0},{"id":2,"value":"0","status":0},{"id":3,"value":"-9999","status":0}]}
{"time":1498160400.0,"channels":[{"id":0,"value":"-9999","status":0,"Summary":{"Maximum":"-9999","Minimum":"-9999","Std":"-9999"}},{"id":1,"value":"-9999","status":0},{"id":2,"value":"0","status":0},{"id":3,"value":"-9999","status":0}]}
{"time":1498160700.0,"channels":[{"id":0,"value":"-9999","status":0,"Summary":{"Maximum":"-9999","Minimum":"-9999","Std":"-9999"}},{"id":1,"value":"-9999","status":0},{"id":2,"value":"0","status":0},{"id":3,"value":"-9999","status":0}]}
{"time":1498161000.0,"channels":[{"id":0,"value":"-9999","status":0,"Summary":{"Maximum":"-9999","Minimum":"-9999","Std":"-9999"}},{"id":1,"value":"-9999","status":0},{"id":2,"value":"0","status":0},{"id":3,"value":"-9999","status":0}]}
{"time":1498161300.0,"channels":[{"id":0,"value":"-9999","status":0,"Summary":{"Maximum":"-9999","Minimum":"-9999","Std":"-9999"}},{"id":1,"value":"-9999","status":0},{"id":2,"value":"0","status":0},{"id":3,"value":"-9999","status":0}]}
{"time":1498161600.0,"channels":[{"id":0,"value":"-9999","status":0,"Summary":{"Maximum":"-9999","Minimum":"-9999","Std":"-9999"}},{"id":1,"value":"-9999","status":0},{"id":2,"value":"0","status":0},{"id":3,"value":"-9999","status":0}]}
{"time":1498161900.0,"channels":[{"id":0,"value":"-9999","status":0,"Summary":{"Maximum":"-9999","Minimum":"-9999","Std":"-9999"}},{"id":1,"value":"-9999","status":0},{"id":2,"value":"0","status":0},{"id":3,"value":"-9999","status":0}]}
{"time":1498162200.0,"channels":[{"id":0,"value":"-9999","status":3,"Summary":{"Maximum":"-9999","Minimum":"9999","Std":"0"}},{"id":1,"value":"0","status":3},{"id":2,"value":"-9999","status":3},{"id":3,"value":"-9999","status":3}]}
